{
"spider":"./Yoursmile2.jar;md5;584cf995e74404a61ca9de91c920ecc3",
"lives": [{"group": "redirect","channels": [{"name": "live","urls": ["proxy://do=live&type=txt&ext=aHR0cHM6Ly94bi0tbTdyNDEyYWR2YjkyajIxc3Q2NWEudGsvbGl2ZS50eHQ="]}]}],

"sites":[
 
  {
            "key": "007",
            "name": "🍹007",
            "type": 3,
            "api": "csp_XBPQ",
            "searchable": 1,
            "playerType": "2",
            "quickSearch": 1,
            "filterable": 0,
            "ext": " ./零零七影视.json"
        },
    {"key":"csp_GitCafe","name":"📜┃纸条┃云盘","type":3,"api":"csp_Paper","playerType":1,"searchable":1,"quickSearch":1,"filterable":1,"ext":"http://我不是.肥猫.love:63/token.php","jar":"http://我不是.肥猫.love:63/Jar/panda230109.jar"}, {"key":"Yisou","name":"🔍┃易搜┃搜索","type":3,"api":"csp_YiSo","playerType":1,"searchable":1,"quickSearch":1,"filterable":0,"ext":"http://我不是.肥猫.love:63/token.php","jar":"http://我不是.肥猫.love:63/Jar/panda230109.jar"}, {"key":"Zhaozy","name":"🔍┃资源┃搜索","type":3,"api":"csp_Zhaozy","playerType":1,"searchable":1,"quickSearch" :1,"filterable":0,"ext":"http://我不是.肥猫.love:63/token.php","jar":"http://我不是.肥猫.love:63/Jar/panda230109.jar"}, {"key":"Upyunso","name":"🔎┃云搜┃搜索","type":3,"api":"csp_Upyunso","playerType":1,"searchable":1,"quickSearch" :1,"filterable":0,"ext":"http://我不是.肥猫.love:63/token.php","jar":"http://我不是.肥猫.love:63/Jar/panda230109.jar"}, {"key":"Alips","name":"🔎┃盘搜┃搜索","type":3,"api":"csp_PanSou","playerType":1,"searchable":1,"quickSearch" :1,"filterable":0,"ext":"http://我不是.肥猫.love:63/token.php","jar":"http://我不是.肥猫.love:63/Jar/panda230109.jar"},     
        {"key":"csp_Kuaikan","name":"快看〔SP〕","type":3,"api":"csp_Kuaikan","searchable":1,"quickSearch":1,"filterable":1},
        {"key":"cap_Zjdr","name":"追剧达人〔SP〕","type":3,"api":"csp_Zjdr","searchable":1,"quickSearch":1,"filterable":1},
        {"key":"csp_Dy1010","name":"双十〔SP〕","type":3,"api":"csp_Dy1010","searchable":1,"quickSearch":1,"filterable":1},
{"key":"csp_fant","name":"饭团〔SP〕","api":"csp_XBiubiu","type":3,"filterable":1,"quickSearch":1,"searchable":1,"ext":"http://111.67.196.181/xpath/太陽-饭团影院.json"},
{
            "key": "csp_AppTT",
            "name": "🐰┃图图┃影视",
            "type": 3,
            "api": "csp_AppTT",
            "playerType": 2,
            "searchable": 1,
            "quickSearch": 1,
            "filterable": 1,
            "ext": "http://124.248.66.107:9955"
        },
        {"key":"ik","name":"️ik高清","type":3,"api":"XBPQ","ext":"免嗅:0,分类url:https://hd.ikys.pro/index.php/vod/show/area/{area}/by/{by}/class/{class}/id/{cateId}/lang/{lang}/year/{year}/page/{catePg}.html"},
    {"key":"野马","name":"️野马","type":3,"api":"csp_XBPQ","ext":"分类url:http://v.yemays.tk/vodshow/{cateId}--{by}-{class}-----{catePg}---{year}.html,线路数组:class=\"text-muted col-pd\"&&/p>,搜索二次截取:id=\"searchList\"&&</ul>"},    
    {"key":"csp_xBPQ_dmxq","name":"️大米星球 | XBPQ | ","type":3,"api":"csp_XBPQ","ext":"{
  \"分类\":\"电影$20#电视剧$21#综艺$23#动漫$22\",
  \"搜索模式\": \"1\",
  \"搜索url\": \"/vodsearch/page/{pg}/wd/{wd}.html\",
  \"导演\": \"导演：&&</div>\",
  \"主演\": \"主演：&&</div>\",
  \"简介\": \"<p>&&</p>\", 
 \"分类url\":\"https://dami1.vip/vodshow/{cateId}-{area}-{by}-{class}-{lang}----{catePg}---{year}.html\"}"},   
{
            "key" : "py_cctv_full",
            "name" : "央视大全",
            "type" : 3,
            "api" : "py_cctv_full",
            "searchable" : 0,
            "quickSearch" : 0,
            "filterable" : 1,
            "ext" : "./py_cctv_full.py"
        },
        {"key":"csp_app_贝贝","name":"🐹┃贝贝┃影视","type":3,"api":"csp_AppYsV2","searchable":1,"quickSearch":1,"filterable":1,"ext":"http://mkuku2.gotka.top/api.php/v1.vod","jar":"http://我不是.肥猫.love:63/Jar/top.jar;md5;D7591B67E8CDB674784B2CEE08AF35BA"},
 {"key":"XBPQ_Lgyy","name":"🌀┃蓝光┃影视","type":3,"api":"csp_XBPQ","searchable":1,"quickSearch":1,"filterable":1,"ext":"http://我不是.肥猫.love:63/json/蓝光影院.json"},  
 {"key":"csp_XBPQ新视觉","name":"🌟┃视觉┃影视","type":3,"api":"csp_XBPQ","searchable":1,"quickSearch":1,"filterable":0,"ext":"http://我不是.肥猫.love:63/json/新视觉影院.json"},   
 {"key": "csp_biubiu_voflix","name": "🌀┃Vof ┃影视","type": 3,"api": "csp_XBPQ","searchable": 1,"quickSearch": 1,"filterable": 1,"ext": "http://w.g9.pub:66/381203888/XP/voflix.json"},  
 {"key":"csp_XBPQ新大米","name":"🌾┃大米┃影视","type":3,"api":"csp_XBPQ","searchable":1,"quickSearch":1,"filterable":0,"ext":{"分类":"电影$20#连续剧$21#综艺$22#动漫$23#福利$35","分类url":"https://www.lkfrp.com/vodshow/{cateId}-{area}-{by}-{class}-{lang}----{catePg}---{year}/pjax/YES.html"}},

{"key":"YQK_spider","name":"🏃┃一起┃电视","api":"csp_YQKAPP","type":3,"filterable":1,"playerType":2,"quickSearch":1,"searchable":1,"ext":"https://api-tx.shumaxc.xyz","jar":"http://我不是.肥猫.love:63/Jar/qq2.jar;md5;4E872E4AA2D4F8B6F4FFBC11E6B3E1A1"},
{"key":"csp_xBPQ_喵影","name":"喵影视","type":3,"api":"csp_XBPQ","ext":"免嗅:1,分类url:http://www.miaoys.cc/index.php/vod/show/area/{area}/by/{by}/class/{class}/id/{cateId}/page/{catePg}/year/{year}.html"},
{"key":"XBPQ_胖虎影视","name":"胖虎影视(XBPQ)","type":3,"api":"csp_XBPQ","searchable":1,"quickSearch":1,"filterable":0,"ext":"https://www.panghuys.com/vodshow/{cateId}/page/{catePg}.html"},
{
            "key": "二萌",
            "name": "🍹二萌",
            "type": 3,
            "api": "csp_XBPQ",
            "searchable": 1,
            "playerType": "2",
            "quickSearch": 1,
            "filterable": 1,
            "ext":"./二萌影视.json"
        },
{"key":"tvb影视","name":"️🍹云播","type":3,"api":"XBPQ","ext":"免嗅:1,分类url:http://www.tvyb03.com/vod/show/area/{area}/class/{class}/id/{cateId}/lang/{lang}/{catePg}/year/{year}.html"},
        {"key":"猫咪影视","name":"️🍹猫咪","type":3,"api":"XBPQ","ext":"免嗅:1,分类url:https://xmaomi.top/vod___________show/catePg-{area}----------{year}.html"},
{
            "key": "厂长",
            "name": "🍹厂长资源",
            "type": 3,
            "api": "csp_XBPQ",
            "searchable": 1,
            "playerType": "2",
            "quickSearch": 1,
            "filterable": 1,
            "ext":"./厂长资源(XBPQ).json"},
{
            "key": "视觉",
            "name": "视觉影视",
            "type": 3,
            "api": "csp_XBPQ",
            "searchable": 1,
            "playerType": "2",
            "quickSearch": 1,
            "filterable": 1,
            "ext": " ./视觉.json"
        },
  {"key":"视觉影视","name":"️🍹新视觉影视","type":3,"api":"XBPQ","ext":"免嗅:1,分类url:https://www.shijueyy.com/v_type/{cateId}-{catePg}.html"},     
{
    	"key": "csp_XBPQ_city电影",
        	"name": "🍹city电影",
            	"type": 3,
                	"api": "csp_XBPQ",
                    	"searchable": 1,
                        	"quickSearch": 1,
                            	"filterable": 0,
                                	"ext": "{\"免嗅\":\"0\",

                                    \"嗅探词\":\"m3u8?#ixigua#.czspp#.m3u8#mp4#.flv#.mp3#.m4a#.mp4#item/video#is_play_url=1\",
                                    \"副标题\":\"class=\\\"vtitle text-right\\\">&&</span>\",
                                    \"简介\":\"text-ccc&&</p\",

                                    \"线路数组\":\"class=\\\"play-div-list-d\\\">&&/span>\",
                                    \"播放数组\":\"class=\\\"play-list&&</ul>\",
                                    \"分类\":\"电影$1#电视剧$2#综艺$3#动漫$4\",
                                    \"分类url\":\"http://www.citydy.com/show/id-{cateId}/page/{catePg}.html\"}"},
    {
	"key": "csp_XBPQ_FOSI",
	"name": "🍹Fosi影视",                 
	"type": 3,
	"api": "csp_XBPQ",
	"searchable": 1,
	"quickSearch": 1,
	"filterable": 0,
	"ext": "{  
    \"免嗅\":\"1\",
    \"数组\":\"myui-panel myui-panel-bg clearfix&&</div>\", 
    \"播放数组\":\"class=\\\"myui-content__list scrollbar sort-list clearfix&&</ul>\",
    \"简介\":\"sketch content\\\"&&</span>\",
     \"副标题\":\"class=\\\"pic-text text-right\\\">&&</span>\",
   \"线路数组\":\"data-toggle&&/li>\", 
    \"线路标题\":\">&&</a>\",  
    \"分类\":\"电影$1#电视剧$2#综艺$3#动漫$4\",
    \"分类url\":\"https://fositv.com/vod_________________________show/{cateId}--------{catePg}---.html\"}"},

{"key":"爱迪影视","name":"️🍹爱迪影视","type":3,"api":"csp_XBPQ","ext":"免嗅:1,分类url:https://aidi.tv/show/{cateId}--------{catePg}---.html"},
 {
      "key": "csp_XBPQ_98影院",
      "name": "98影院(XBPQ)",
      "type": 3,
      "api": "csp_xBPQ",
      "searchable": 1,
      "quickSearch": 1,
      "filterable": 0,
      "ext": "{\"免嗅\":\"0\",\"副标题\":\"right\\\">&&</span>\",\"播放标题\":\">&&</a>\",\"播放数组\":\"<ul class=\\\"stui-content__playlist&&</ul>\",\"线路数组\": \"<img src=&&/h3>\",\"线路标题\": \">&&<\",\"分类url\":\"http://www.98ju.com/{cateId}/index{catePg}.html[http://www.98ju.com/{cateId}/index.html]\",\"分类\":\"电影$dianyingpian#电视剧$dianshiju#综艺$zongyi#动漫$dongman\",\"类型\":\"dianyingpian--动作片$dongzuopian#爱情片$aiqingpian#科幻片$kehuanpian#恐怖片$kongbupian#战争片$zhanzhengpian#喜剧片$xijupian#纪录片$jilupian#剧情片$juqingpian||dianshiju--国产剧$guochanju#港台剧$gangtaiju#日韩剧$rihanju#欧美剧$oumeiju]\",\"地区\":\"0\",\"剧情\":\"0\",\"年份\":\"0\",\"排序\":\"0\",\"筛选\":\"1\"}"},
{"key":"胖虎影视","name":"️🍹胖虎","type":3,"api":"XBPQ","ext":"免嗅:1,分类url:https://www.panghuys.com/vodshow/{cateId}/area/{area}/class/{class}/lang/{lang}/year/{year}.html"},
{
	"key": "csp_xBPQ_jiaozi",
	"name": "🍹饺子影视",                 
	"type": 3,
	"api": "csp_XBPQ",
	"searchable": 1,
	"quickSearch": 1,
	"filterable": 0,
	"ext": "{ 
    \"免嗅\":\"0\", 
     \"播放数组\":\"class=\\\"myui-content__list sort-list clearfix&&</ul>\",
     \"副标题\":\"class=\\\"pic-text text-right\\\">&&</span>\",
     \"简介\":\"class=\\\"left text-muted\\\"&&</span>\", 
    \"线路数组\":\"data-toggle&&/li>\", 
    \"线路标题\":\">&&</a>\",   
     \"分类\":\"电影$1#电视剧$2#国产剧$14#综艺$44#动漫$41\",
     \"分类url\":\"https://www.jiaozi.me/mlist/index{cateId}-{catePg}.html\"}"},
 {"key": "csp_XBPQ_51kan","name": "🐲51看(XBPQ)","type": 3,"api": "csp_xBPQ","searchable": 1,"quickSearch": 1,"filterable": 0,"ext": "{\"免嗅\":\"1\",\"播放数组\":\"class=\\\"hl-list-wrap&&</div>\",\"副标题\":\"class=\\\"hl-lc-1 remarks\\\">&&</span>\",\"简介\":\"class=\\\"hl-text-muted\\\"&&</li>\", \"线路数组\":\"javascript:void(0);&&/a>\",\"线路标题\":\"&nbsp;&&<\",\"分类\":\"电影$1#电视剧$2#国产剧$13#港剧$14#综艺$3#动漫$4\",\"分类url\":\"https://www.51kanju.cc/show{cateId}--{area}-{year}-/lang/{lang}{catePg}.html\"}"},   
 {"key":"洛攻阁","name":"🍹️洛攻阁影院","type":3,"api":"XBPQ","ext":"免嗅:0,分类url:https://www.lggys.cn/index.php/vod/show/area/{area}/by/{by}/class/{class}/id/{cateId}/lang/{lang}/year/{year}/page/{catePg}.html"},
 {"key":"AB","name":"️AB影院","type":3,"api":"XBPQ","ext":"免嗅:0,分类url:https://www.abu22.com/vodshow/{cateId}-{area}-{by}------{catePg}---{year}.html"},
{"key":"韩剧","name":"️韩剧网","type":3,"api":"XBPQ","ext":"免嗅:1,分类:韩剧$hanju#日剧$riju#泰剧$taiju#电影$dianying#动作片$dongzoupian#喜剧片$xijupian爱情片$aiqingpian#科幻片$kehuanpian#恐怖片$kongbupian#剧情片$juqingpian#战争片$zhanzhengpian#韩综$hanzong,分类url:https://www.hantvn.com/vod/show/class/{class}/id/{cateId}/page/{catepg}/lang/{lang}/year/{year}.html"},
 {"key":"首播","name":"️首播影院",
    "type":3,"api":"csp_XBPQ",
    "searchable": 1,
            "quickSearch": 1,
            "filterable":0,"ext":"https://www.23zhui.com/vodshow/{cateId}-{class}-{by}------{catePg}---{year}.html"},     
{"key":"映迷","name":"️映迷高清","type":3,"api":"csp_XBPQ","ext":"免嗅:0,分类url:https://www.inmi.app/index.php/vod/show/area/{area}/by/{by}/class/{class}/id/{cateId}/lang/{lang}/page/{catePg}/year/{year}.html"},
{
    "key":"dr_布雷蓝光",
    "name":"布雷蓝光(drpy)",
    "type":3,
    "api":"https://gitcode.net/qq_32394351/dr_py/-/raw/master/libs/drpy2.min.js",
    "searchable":2,
    "quickSearch":0,
    "filterable":0,
    "ext":"https://gitcode.net/qq_32394351/dr_py/-/raw/master/js/布雷蓝光.js"
},
  {
    "key":"dr_ddys",
    "name":"低端(drpy)",
    "type":3,
    "api":"https://gitcode.net/qq_32394351/dr_py/-/raw/master/libs/drpy2.min.js",
    "searchable":2,
    "quickSearch":0,
    "ext":"https://gitcode.net/qq_32394351/dr_py/-/raw/master/js/ddys.js"
},
    {
      "key":"csp_XBPQ金曼",
      "name":"🐰金曼┃xBPQ",
      "type":3,
      "api":"csp_XBPQ",
      "searchable":1,
      "quickSearch":1,
      "filterable":0,
      "ext":{"免嗅":1,
      "分类url":"https://www.jinmantv.com/index.php/vod/show{area}{by}/id/{cateId}/page/{catePg}{year}.html"},
      "jar":"http://我不是.肥猫.love:63/Jar/XBPQ_1216.jar;md5;965303ECF01FEB638C7F52029F7ADDF2"
    },
	
{"key":"csp_kuaikan","name":"👀快看┃SP","type":3,"api":"csp_Kuaikan","playerType":1,"searchable":1,"quickSearch":1,"filterable":1},

        {
            "key": "csp_appysv2_555电影",
            "name": "555电影〔APP〕",
            "type": 3,
            "api": "csp_AppYsV2",
            "searchable": 1,
            "quickSearch": 1,
            "filterable": 1,
            "ext": "https://www.555ys1.com/api.php/app/",
            "jar": "https://agit.ai/138001380000/MHQTV/raw/branch/master/jar/饭.jar"
        },
        {"key":"csp_BBB","name":"🅱┃哔哩┃合集","type":3,"api":"csp_Bili","searchable":1,"quickSearch":0,"filterable":1,"ext":"http://w.g9.pub:66/381203888/json/bili.json"},


        {"key":"csp_Bili","name":"🅱┃哔哩┃合集","type": 3,"api": "csp_Bili","searchable": 1,"quickSearch": 0,"filterable": 1,"ext":"http://w.g9.pub:66/381203888/json/bilibili_2.json"},

        {"key":"演唱会","name":"🅱┃哔哩┃音乐","type":3,"api":"csp_Bili","searchable":0,"quickSearch":0,"filterable":1,"ext":"http://我不是.肥猫.love:63/json/ych.json"},
{"key":"csp_apple","name":"🍎苹果┃SP","type":3,"api":"csp_Dora","ext":"6deed4548c44b18d268a5d828f04d86e"},
{"key":"csp_77","name":"👒七七┃SP","type":3,"api":"csp_Kunyu77","searchable":1,"quickSearch":1,"filterable":1},
{"key":"csp_Lezhu","name":"🐷乐猪┃SP","type":3,"api":"csp_Lezhu","searchable":1,"quickSearch":1,"filterable":1},
{"key":"csp_SP360","name":"📺360┃SP","type":3,"api":"csp_SP360","searchable":1,"quickSearch":1,"filterable":1},
{"key":"teng","name":"🐧小腾┃SP","type": 3,"api":"csp_QQ","searchable": 1,"quickSearch": 1,"filterable":1},
{"key":"ai","name":"🐨爱奇┃SP","type":3,"api":"csp_IQIYI","quickSearch":1,"searchable":1,"filterable":1},
{"key":"MGT","name":"🍋芒果┃SP","type":3,"api":"csp_Mgtv","searchable":1,"quickSearch":1,"filterable":1},
{"key":"csp_Yj1211","name":"📽️网红直播┃SP","type": 3,"api": "csp_Yj1211","searchable": 1,"quickSearch": 1,"filterable": 1,"jar":"http://我不是.肥猫.love:63/Jar/panda230109.jar"},
{"key":"csp_XYQBiu_虎牙直播","name":"🐅┃虎牙┃直播","type":3,"api":"XYQBiu","searchable":0,"quickSearch":0,"filterable":0,"ext":"http://52bsj.vip:81/api/v3/file/get/61538/%E8%99%8E%E7%89%99%E7%9B%B4%E6%92%AD.json?sign=A1qc233LiJtbdsY0cKQrmfOMhs74vpGD003UUVRYljM%3D%3A0","jar":"http://我不是.肥猫.love:63/Jar/panda230109.jar"}, {"key":"csp_XYQBiu_斗鱼","name":"🐟┃斗鱼┃直播","type":3,"api":"csp_XYQBiu","searchable":0,"quickSearch":0,"filterable":0,"ext":"http://52bsj.vip:81/api/v3/file/get/61539/%E6%96%97%E9%B1%BC%E7%9B%B4%E6%92%AD.json?sign=QstVfVPDwiqEABPoyKrhYV4WfMeyACXtB5TWIDPMHyE%3D%3A0"}, 
//{"key":"Yisou","name":"😹易搜┃搜索","type":3,"api":"csp_Yisou","playerType":1,"searchable":1,"quickSearch":1,"filterable":0,"ext":"http://ali.饭太硬.ml/tok"},
//{"key":"Zhaozy","name":"🐺找资源┃搜索","type":3,"api":"csp_Zhaozy","playerType":1,"searchable":1,"quickSearch":1,"filterable":0,"ext":"http://ali.饭太硬.ml/tok"},
//{"key":"Upyunso","name":"😻Up云搜┃搜索","type":3,"api":"csp_Upyunso","playerType":1,"searchable":1,"quickSearch":1,"filterable":0,"ext":"http://ali.饭太硬.ml/tok"},
//{"key":"Alips","name":"🦊Ali盘搜┃搜索","type":3,"api":"csp_AliPS","playerType":1,"searchable":1,"quickSearch":1,"filterable":0,"ext":"http://ali.饭太硬.ml/tok"},
{"key":"push_agent","name":"🛴推送┃手机","type":3,"api":"csp_PushAgent","playerType":1,"searchable":0,"quickSearch":0,"filterable":0,"ext":"http://ali.饭太硬.ml/tok"}
],
    "parses": [
        {
            "name": "Json并发",
            "type": 2,
            "url": "Parallel"
        },
        {
            "name": "Json轮询",
            "type": 2,
            "url": "Sequence"
        },
        {
            "name": "解析聚合",
            "type": 3,
            "url": "Demo"
        },
        {"name":"手动解析1","type":0,"url":"https://jx.bozrc.com:4433/player/?url=","ext":{"header":{"User-Agent":"okhttp/4.1.0"},"flag":["qq","腾讯","qiyi","爱奇艺","奇艺","youku","优酷","mgtv","芒果","letv","乐视","pptv","PPTV","sohu","bilibili","哔哩哔哩","哔哩"]}}, { "name": "手动2", "type": 0, "url": "https://jx.777jiexi.com/player/?url=" }, { "name": "手动3", "type": 0, "url": "https://jx.jsonplayer.com/player/?url=" }, { "name" : "手动4", "type" : 1, "url" : "http://lanlan.ckflv.cn/?url=", "ext" : { "flag" : [ "qiyi", "qq", "letv", "sohu", "youku", "mgtv", "bilibili", "wasu", "xigua", "1905"] } }, {"name":"战狼","type":0,"url":"https://jx.zhanlangbu.com/?url="}, {"name":"十三","type":0,"url":"http://www.13tv.top/label/v.html?url=","ext":{"flag":["qq","腾讯","企鹅","IQiYi","qiyi","爱奇艺","奇艺","youku","YouKu","优酷","sohu","SoHu","搜狐","letv","LeShi","乐视","mgtv","MangGuo","芒果","CL4K","renrenmi","ltnb","bilibili","1905","xigua"]}}, {"name":"朝阳","type":1,"url":"https://api.cygc.xyz/analysis/?url="}, {"name":"Q1解析","type":1,"url":"https://parse.ikunfk.cc/parse/sign/74e860ee6889f03cae108d6c228aa725?url=","header":{"User-Agent":"Mozilla/5.0"}}, {"name":"91饭粒","url":"http://91fanli.top/m3u8/?url=","type":0,"ext":{"flag":["qiyi","imgo","爱奇艺","奇艺","qq","腾讯","youku","优酷","pptv","PPTV","letv","乐视","leshi","bilibili","哔哩哔哩","哔哩","mgtv","芒果","sohu","xigua","fun","风行"],"header":{"User-Agent":"Mozilla/5.0"}}}, { "name": "k解","type": 1,"url":"https://k.json.icu/home/api?type=ys&uid=6399107&key=bdlmrswBDHIKZ01238&url=" }, {"name":"源播","type":0,"url":"https://jx.jsonplayer.com/player/?url="}, 
        {"name":"解析1","type":1,"url":"http://rxjx.kuanjv.com/allm3u8.php?url=","ext": {"flag":["rx","ltnb","renrenmi","rongxing","bilibili","哔哩哔哩","哔哩","youku","优酷","qiyi","爱奇艺","奇艺","qq","腾讯","mgtv","芒果","sohu","搜狐","letv","乐视","xigua","CL4K","西瓜"]}},
        {"name":"Q1解析","type":1,"url":"https://parse.ikunfk.cc/parse/sign/74e860ee6889f03cae108d6c228aa725?url=","header":{"User-Agent":"Mozilla/5.0"}},
        {"name": "万年魂环解析",
        "type": 1,
        "url": "https://jiexi.parses.repl.co/api.php?url="
        }.
{"name":"Q1官解","type":1,"url":"https://parse.ikunfk.cc/parse/sign/20221230?url=","header":{"User-Agent":"Mozilla/5.0"}},
{
      "name": "懒懒3",
      "type": 1,
      "url": "http://lanlan.ckflv.cn/?url="
    },
    {
      "name": "江湖",
      "type": 1,
      "url": "http://rxjx.kuanjv.com/allm3u8.php?url="
    },
 {
            "name": "rx2",
            "type": 1,
            "url": "http://rxjx.kuanjv.com/allm3u8.php?url="
        },

    {
      "name": "1920lg",
      "type": 1,
      "url": "https://www.1920lgzy.top/json.php?url="
    },
{
      "name": "777一",
      "type": 0,
      "url": "https://jx.777jiexi.com/player/?url="
    },
    {
      "name": "777二",
      "type": 0,
      "url": "https://jx.jsonplayer.com/player/?url="
    },
{
      "name": "风起蓟州",
      "type": 0,
      "url": "https://www.nxflv.com/?url="
    },
    {
      "name": "风起兖州",
      "type": 0,
      "url": "http://jx.gbxy.net.cn/?url="
    },{
      "name": "风起江湖",
      "type": 1,
      "url": "http://45.248.10.163:4433/json.php?wap=0&url="
    },   
   {
      "name": "风起容县",
      "type": 1,
      "url": "http://rxjx.kuanjv.com/allm3u8.php?url="
    },
       
    {
      "name": "风起涂州",
      "type": 1,
      "url": "http://lanlan.ckflv.cn/?url=",
      "ext": {
        "flag": [
          "qiyi",
          "qq",
          "letv",
          "sohu",
          "youku",
          "mgtv",
          "bilibili",
          "wasu",
          "xigua",
          "1905"
        ]
      }
    },
    {
      "name": "风起鄞州",
      "type": 0,
      "url": "https://jx.bozrc.com:4433/player/?url=",
      "ext": {
        "flag": [
          "qq",
          "腾讯",
          "qiyi",
          "爱奇艺",
          "奇艺",
          "youku",
          "优酷",
          "mgtv",
          "芒果",
          "letv",
          "leshi",
          "LS",
          "pptv",
          "PPTV",
          "sohu",
          "bilibili",
          "哔哩哔哩",
          "哔哩"
        ],
        "header": {
          "User-Agent": ""
        }
      }
    },
{
            "name": "道长VIP",
            "type": 1,
            "url": "https://80k.tv/jxplayer.php?v="
        },
        {
            "name": "11-鸿途PCUA",
            "type": 0,
            "url": "https://h5.freejson.xyz/player/?url="
        },
{
            "name": "OKjx综合",
            "type": 0,
            "url": "https://okjx.cc/?url="
        },
{"name":"4K","url":"https://jx.4kdv.com/?url=", "showType":1}, {"name":"综合/B站","url":"https://jx.bozrc.com:4433/player/?url=", "showType":3}  
],
	
"rules": [
{"host":"*","rule":["default.365yg.com"]},{"host":"dyxs20.com","rule":[".m3u8"]},
{"host":"www.agemys.cc","rule":["cdn-tos","obj/tos-cn"]},
{"host":"zjmiao.com","rule":["play.videomiao.vip/API.php","time="]},
{"host":"www.sharenice.net","rule":["http.*?/play.{0,3}\\?[^url]{2,8}=.*"]},
{"host":"www.sharenice.net","rule":["qianpailive.com","vid="]},
{"host":"*","rule":["douyin.com/aweme","video_id="]},
{"host":"*","rule":["huoshan.com","/item/video/"]},
{"host":"*","rule":["http((?!http).){12,}?\\.(m3u8|mp4|flv|avi|mkv|rm|wmv|mpg|m4a)\\?.*"]},
{"host":"*","rule":["http((?!http).){12,}\\.(m3u8|mp4|flv|avi|mkv|rm|wmv|mpg|m4a)"]}
],

"flags":["youku","qq","QQ","iqiyi","qiyi","letv","sohu","tudou","pptv","PPTV","mgtv","ltnb","rx","CL4K","xfyun","wuduzy","wasu","bilibili","renrenmi","xmm","xigua","m1905 ","funshion ","优酷","芒果","腾讯","爱奇艺","奇艺","哔哩哔哩","哔哩"],
"ijk":[{"group":"软解码","options":[{"category":4,"name":"opensles","value":"0"},{"category":4,"name":"overlay-format","value":"842225234"},{"category":4,"name":"framedrop","value":"1"},{"category":4,"name":"soundtouch","value":"1"},{"category":4,"name":"start-on-prepared","value":"1"},{"category":1,"name":"http-detect-range-support","value":"0"},{"category":1,"name":"fflags","value":"fastseek"},{"category":2,"name":"skip_loop_filter","value":"48"},{"category":4,"name":"reconnect","value":"1"},{"category":4,"name":"max-buffer-size","value":"5242880"},{"category":4,"name":"enable-accurate-seek","value":"0"},{"category":4,"name":"mediacodec","value":"0"},{"category":4,"name":"mediacodec-auto-rotate","value":"0"},{"category":4,"name":"mediacodec-handle-resolution-change","value":"0"},{"category":4,"name":"mediacodec-hevc","value":"0"},{"category":1,"name":"dns_cache_timeout","value":"600000000"}]},{"group":"硬解码","options":[{"category":4,"name":"opensles","value":"0"},{"category":4,"name":"overlay-format","value":"842225234"},{"category":4,"name":"framedrop","value":"1"},{"category":4,"name":"soundtouch","value":"1"},{"category":4,"name":"start-on-prepared","value":"1"},{"category":1,"name":"http-detect-range-support","value":"0"},{"category":1,"name":"fflags","value":"fastseek"},{"category":2,"name":"skip_loop_filter","value":"48"},{"category":4,"name":"reconnect","value":"1"},{"category":4,"name":"max-buffer-size","value":"5242880"},{"category":4,"name":"enable-accurate-seek","value":"0"},{"category":4,"name":"mediacodec","value":"1"},{"category":4,"name":"mediacodec-auto-rotate","value":"1"},{"category":4,"name":"mediacodec-handle-resolution-change","value":"1"},{"category":4,"name":"mediacodec-hevc","value":"1"},{"category":1,"name":"dns_cache_timeout","value":"600000000"}]}],
"ads":["https://lf1-cdn-tos.bytegoofy.com/obj/tos-cn-i-dy/455ccf9e8ae744378118e4bd289288dd","mimg.0c1q0l.cn","www.googletagmanager.com","www.google-analytics.com","mc.usihnbcq.cn","mg.g1mm3d.cn","mscs.svaeuzh.cn","cnzz.hhttm.top","tp.vinuxhome.com","cnzz.mmstat.com","www.baihuillq.com","s23.cnzz.com","z3.cnzz.com","c.cnzz.com","stj.v1vo.top","z12.cnzz.com","img.mosflower.cn","tips.gamevvip.com","ehwe.yhdtns.com","xdn.cqqc3.com","www.jixunkyy.cn","sp.chemacid.cn","hm.baidu.com","s9.cnzz.com","z6.cnzz.com","um.cavuc.com","mav.mavuz.com","wofwk.aoidf3.com","z5.cnzz.com","xc.hubeijieshikj.cn","tj.tianwenhu.com","xg.gars57.cn","k.jinxiuzhilv.com","cdn.bootcss.com","ppl.xunzhuo123.com","xomk.jiangjunmh.top","img.xunzhuo123.com","z1.cnzz.com","s13.cnzz.com","xg.huataisangao.cn","z7.cnzz.com","xg.huataisangao.cn","z2.cnzz.com","s96.cnzz.com","q11.cnzz.com","thy.dacedsfa.cn","xg.whsbpw.cn","s19.cnzz.com","z8.cnzz.com","s4.cnzz.com","f5w.as12df.top","ae01.alicdn.com","www.92424.cn","k.wudejia.com","vivovip.mmszxc.top","qiu.xixiqiu.com","cdnjs.hnfenxun.com","cms.qdwght.com"]
}
